public static void main(String[] args) {
        String resposta;
        int cnt=1;
        double[][] matrizLeslie = new double[200][200];
        int[] vetorx = new int[200];
        System.out.println("Quanta população pertence ao 1º grupo etário?");
            vetorx[0] = sc.nextInt();
            do {
                System.out.println("Deseja adicionar mais um grupo etário? (Responda com 'sim' ou 'nao')");
                resposta = sc.next();
                while (!resposta.equalsIgnoreCase("sim") && !resposta.equalsIgnoreCase("nao")) {
                    System.out.println("Resposta inválida tente outra vez");
                    resposta = sc.next();
                }
                    if (resposta.equalsIgnoreCase("sim")) {
                        System.out.println("Quanta população pertence ao " + (cnt+1) + "° grupo etário?");
                        vetorx[cnt]=sc.nextInt();
                        cnt++;
                    }
            }while (!resposta.equalsIgnoreCase("nao"));
            int[]vetorxfinal = new int[cnt];
            for(int i=0; i<cnt; i++){
                vetorxfinal[i] = vetorx[i];
            }
}